varroa_virus_networks
…
# and bind the two data frames together 
viruses_load <- rbind(x, VOV_1) 

# reorder the viruses, so VOV_1 will apear in row number 3
r <- 2
insertRow <- function(x, VOV_1, r) {
  x[seq(r+1,nrow(x)+1),] <- x[seq(r,nrow(x)),]
  x[r,] <- VOV_1
  x
}

insertRow(x, VOV_1, r)

## # A tibble: 23 x 67
##    description SRR3632582 SRR3633003 SRR3634700 SRR3634772 SRR3634929 SRR3634942
##    <chr>            <dbl>      <dbl>      <dbl>      <dbl>      <dbl>      <dbl>
##  1 DWVa             0.204 13.1            0.215    71.6     2.12         0.00911
##  2 VOV_1            0      0              0         1.87    0            0      
##  3 ARV_2            0      0.0142         0         0.0904  0            0      
##  4 BMV              0      0.00404        0         0.0963  0            0      
##  5 AmFV             0      0.0000987      0         0       0.0000394    0      
##  6 ABPV             0      0              0         0       0            0      
##  7 VTLV             0      0.193          0         1.37    0.00328      0      
##  8 IAPV             0      0              0         0       0            0      
##  9 SV               0      0              0         0       0            0      
## 10 VDV1/DWVb        0      0.00742        0         0.118   0.00198      0      
## #  with 13 more rows, and 60 more variables: SRR3635001 <dbl>,
## #   SRR3635050 <dbl>, SRR3635105 <dbl>, SRR3927486 <dbl>, SRR5377263 <dbl>,
## #   SRR5377264 <dbl>, SRR5377265 <dbl>, SRR5377266 <dbl>, SRR5377267 <dbl>,
## #   SRR5377268 <dbl>, SRR5377269 <dbl>, SRR5377270 <dbl>, SRR5760812 <dbl>,
## #   SRR5760813 <dbl>, SRR5760814 <dbl>, SRR5760815 <dbl>, SRR5760816 <dbl>,
## #   SRR5760817 <dbl>, SRR5760818 <dbl>, SRR5760819 <dbl>, SRR5760820 <dbl>,
## #   SRR5760821 <dbl>, SRR5760822 <dbl>, SRR5760823 <dbl>, SRR5760824 <dbl>,
## #   SRR5760825 <dbl>, SRR5760826 <dbl>, SRR5760827 <dbl>, SRR5760828 <dbl>,
## #   SRR5760829 <dbl>, SRR5760830 <dbl>, SRR5760831 <dbl>, SRR5760832 <dbl>,
…
